year,issue,area,title,author,abstract
2020,SEPTIEMBRE 2020 · Nº 528,NEUROBIOLOGÍA,Las vías imprevistas del aprendizaje,R. Douglas Fields,"La sustancia blanca, considerada hasta hace poco un tejido pasivo, desempeña un papel clave en el procesamiento de la información."
2020,SEPTIEMBRE 2020 · Nº 528,ARQUEOLOGÍA,La conquista agrícola de Europa,Laura Spinney,El encuentro de los pueblos agrarios con los cazadores-recolectores habría dado lugar a una jerarquía que hoy resulta inquietante.
2020,SEPTIEMBRE 2020 · Nº 528,FÍSICA DE PARTÍCULAS,Neutrinos ocultos,"William Charles Louis, Richard G. Van de Water",Un experimento aspira a encontrar un nuevo tipo de neutrino que podría resultar clave para entender el sector oscuro del universo.
2020,SEPTIEMBRE 2020 · Nº 528,GENÓMICA,Una visión más nítida de los secretos celulares,Maria Colomé Tatché,"Un nuevo enfoque metodológico basado en la superposición de múltiples capas de información arroja nueva luz sobre la identidad y la función celular. Denominado «secuenciación multimodal de células individuales», fue declarado método del año 2019."
2020,SEPTIEMBRE 2020 · Nº 528,BIOLOGÍA,Los secretos de un superviviente antártico,Douglas Fox,Un minúsculo hexápodo ha sobrevivido a una treintena de glaciaciones en los confines de la Antártida. Ahora se comienzan a desvelar las claves de semejante tenacidad.
2020,SEPTIEMBRE 2020 · Nº 528,MATEMÁTICAS,Las matemáticas a vista de pájaro,Manon Bischoff,"La teoría de categorías, una disciplina surgida en los últimos 70 años, permite descubrir conexiones inesperadas entre distintas áreas de las matemáticas. Ha encontrado aplicaciones en física, informática y lingüística."
2020,SEPTIEMBRE 2020 · Nº 528,ASTRONOMÍA,Ha nacido un planeta,Meredith A. MacGregor,Las imágenes de alta resolución de los remolinos de polvo que quedan tras formarse las estrellas revelan la presencia de planetas ocultos y detalles sobre cómo evolucionan los sistemas solares.
2020,OCTUBRE 2020 · Nº 529,EVOLUCIÓN,El ascenso de los robles y las encinas,"Andrew L. Hipp, Paul S. Manos, Jeannine Cavender-Bares",¿De qué modo evolucionaron los árboles del género Quercus hasta dominar los bosques del hemisferio boreal?
2020,OCTUBRE 2020 · Nº 529,ECONOMÍA,Las limitaciones del PIB,Joseph E. Stiglitz,"La obsesión por el producto interior bruto ha tenido efectos negativos sobre la felicidad, la salud y el medioambiente. Los economistas quieren reemplazarlo por otros indicadores."
2020,OCTUBRE 2020 · Nº 529,SOSTENIBILIDAD,La encrucijada de la biomasa,"Eric Toensmeier, Dennis Garrity","Las estrategias para reducir el dióxido de carbono requieren más árboles, pastos y residuos agrícolas de los que puede permitirse el planeta."
2020,OCTUBRE 2020 · Nº 529,ANTROPOLOGÍA,La supervivencia del más amable,"Brian Hare, Vanessa Woods",La selección natural de los rasgos hipersociales permitió que la especie dominante de la Tierra se impusiera a los neandertales y otros competidores.
2020,OCTUBRE 2020 · Nº 529,FÍSICA TEÓRICA,Universos en la ciénaga,Luis E. Ibáñez,Un nuevo programa de investigación intenta cartografiar qué teorías físicas son incompatibles con la gravedad cuántica. Los resultados podrían tener consecuencias verificables en cosmología y física de partículas.
2020,OCTUBRE 2020 · Nº 529,GENÉTICA MÉDICA,Nuevos fármacos contra las enfermedades minoritarias,Lydia Denworth,"Descartados desde hace tiempo, los oligonucleótidos antisentido comienzan a dar frutos espectaculares en trastornos neurológicos."
2020,OCTUBRE 2020 · Nº 529,NEUROLOGÍA,Prevenir la enfermedad priónica,"Sonia Minikel Vallabh, Eric Vallabh Minikel",El tratamiento preventivo de las personas con riesgo a sufrir esta enfermedad neurodegenerativa mortal parece la mejor manera de evitarla.
