year,issue,section,title,type
2020,AGOSTO 2020 · Nº 527,CARTAS DE LOS LECTORES,"Cartas de los lectores: Agujeros negros, localidad y entrelazamiento",Small note
2020,AGOSTO 2020 · Nº 527,CARTAS DE LOS LECTORES,Cartas de los lectores: Mar caliente,Small note
2020,AGOSTO 2020 · Nº 527,APUNTES,La transformación de Venus,Small note
2020,AGOSTO 2020 · Nº 527,APUNTES,Huellas de tsunamis,Small note
2020,AGOSTO 2020 · Nº 527,APUNTES,Indicadores paleoambientales,Small note
2020,AGOSTO 2020 · Nº 527,APUNTES,Neuronas convertidas en componentes bioelectrónicos,Small note
2020,AGOSTO 2020 · Nº 527,APUNTES,Controlar los mosquitos con lídar,Small note
2020,AGOSTO 2020 · Nº 527,APUNTES,La supervivencia de los más jóvenes,Small note
2020,AGOSTO 2020 · Nº 527,APUNTES,Información no visual,Small note
2020,AGOSTO 2020 · Nº 527,APUNTES,La fragilidad de los peces con manos,Small note
2020,AGOSTO 2020 · Nº 527,APUNTES,Oleada de satélites,Small note
2020,AGOSTO 2020 · Nº 527,APUNTES,¿Tortuga macho o hembra?,Small note
2020,AGOSTO 2020 · Nº 527,AGENDA,"Conferencias, exposiciones y cursos para agosto de 2020",Small note
2020,AGOSTO 2020 · Nº 527,PANORAMA,La madera registra la vulnerabilidad de los árboles frente a futuras sequías,Small note
2020,AGOSTO 2020 · Nº 527,PANORAMA,Los miniórganos revelan de qué modo el coronavirus hace estragos en el cuerpo,Small note
2020,AGOSTO 2020 · Nº 527,PANORAMA,¿Por qué hay materia en el universo?,Small note
2020,AGOSTO 2020 · Nº 527,DE CERCA,Retina luminosa,Small note
2020,AGOSTO 2020 · Nº 527,HISTORIA DE LA CIENCIA,Mirar a los elefantes e ignorar los carteles,Small note
2020,AGOSTO 2020 · Nº 527,FORO CIENTÍFICO,El triaje de los pacientes de COVID-19,Small note
2020,AGOSTO 2020 · Nº 527,CURIOSIDADES DE LA FÍSICA,El sonido de una gota de agua,Small note
2020,AGOSTO 2020 · Nº 527,JUEGOS MATEMÁTICOS,Sucesiones sin regularidades,Small note
2020,AGOSTO 2020 · Nº 527,CORRESPONDENCIAS,"Rudolf Virchow, activista médico y social",Small note
2020,AGOSTO 2020 · Nº 527,LIBROS,¿Mecánica cuántica o misticismo cuántico?,Small note
2020,AGOSTO 2020 · Nº 527,LIBROS,Ética de la edición genómica,Small note
2020,AGOSTO 2020 · Nº 527,HACE...,"Hace 50, 100 y 150 años",Small note
